<?xml version="1.0" encoding="utf-8"?>
<!DOCTYPE eagle SYSTEM "eagle.dtd">
<eagle version="9.6.2">
<drawing>
<settings>
<setting alwaysvectorfont="no"/>
<setting verticaltext="up"/>
</settings>
<grid distance="0.1" unitdist="inch" unit="inch" style="lines" multiple="1" display="no" altdistance="0.01" altunitdist="inch" altunit="inch"/>
<layers>
<layer number="1" name="Top" color="0" fill="1" visible="no" active="no"/>
<layer number="2" name="Route2" color="0" fill="3" visible="no" active="no"/>
<layer number="3" name="Route3" color="0" fill="3" visible="no" active="no"/>
<layer number="4" name="Route4" color="0" fill="4" visible="no" active="no"/>
<layer number="5" name="Route5" color="0" fill="4" visible="no" active="no"/>
<layer number="6" name="Route6" color="0" fill="8" visible="no" active="no"/>
<layer number="7" name="Route7" color="0" fill="8" visible="no" active="no"/>
<layer number="8" name="Route8" color="0" fill="2" visible="no" active="no"/>
<layer number="9" name="Route9" color="0" fill="2" visible="no" active="no"/>
<layer number="10" name="Route10" color="0" fill="7" visible="no" active="no"/>
<layer number="11" name="Route11" color="0" fill="7" visible="no" active="no"/>
<layer number="12" name="Route12" color="0" fill="5" visible="no" active="no"/>
<layer number="13" name="Route13" color="0" fill="5" visible="no" active="no"/>
<layer number="14" name="Route14" color="0" fill="6" visible="no" active="no"/>
<layer number="15" name="Route15" color="0" fill="6" visible="no" active="no"/>
<layer number="16" name="Bottom" color="0" fill="1" visible="no" active="no"/>
<layer number="17" name="Pads" color="0" fill="1" visible="no" active="no"/>
<layer number="18" name="Vias" color="0" fill="1" visible="no" active="no"/>
<layer number="19" name="Unrouted" color="0" fill="1" visible="no" active="no"/>
<layer number="20" name="Dimension" color="0" fill="1" visible="no" active="no"/>
<layer number="21" name="tPlace" color="0" fill="1" visible="no" active="no"/>
<layer number="22" name="bPlace" color="0" fill="1" visible="no" active="no"/>
<layer number="23" name="tOrigins" color="0" fill="1" visible="no" active="no"/>
<layer number="24" name="bOrigins" color="0" fill="1" visible="no" active="no"/>
<layer number="25" name="tNames" color="0" fill="1" visible="no" active="no"/>
<layer number="26" name="bNames" color="0" fill="1" visible="no" active="no"/>
<layer number="27" name="tValues" color="0" fill="1" visible="no" active="no"/>
<layer number="28" name="bValues" color="0" fill="1" visible="no" active="no"/>
<layer number="29" name="tStop" color="0" fill="3" visible="no" active="no"/>
<layer number="30" name="bStop" color="0" fill="6" visible="no" active="no"/>
<layer number="31" name="tCream" color="0" fill="4" visible="no" active="no"/>
<layer number="32" name="bCream" color="0" fill="5" visible="no" active="no"/>
<layer number="33" name="tFinish" color="0" fill="3" visible="no" active="no"/>
<layer number="34" name="bFinish" color="0" fill="6" visible="no" active="no"/>
<layer number="35" name="tGlue" color="0" fill="4" visible="no" active="no"/>
<layer number="36" name="bGlue" color="0" fill="5" visible="no" active="no"/>
<layer number="37" name="tTest" color="0" fill="1" visible="no" active="no"/>
<layer number="38" name="bTest" color="0" fill="1" visible="no" active="no"/>
<layer number="39" name="tKeepout" color="0" fill="11" visible="no" active="no"/>
<layer number="40" name="bKeepout" color="0" fill="11" visible="no" active="no"/>
<layer number="41" name="tRestrict" color="0" fill="10" visible="no" active="no"/>
<layer number="42" name="bRestrict" color="0" fill="10" visible="no" active="no"/>
<layer number="43" name="vRestrict" color="0" fill="10" visible="no" active="no"/>
<layer number="44" name="Drills" color="0" fill="1" visible="no" active="no"/>
<layer number="45" name="Holes" color="0" fill="1" visible="no" active="no"/>
<layer number="46" name="Milling" color="0" fill="1" visible="no" active="no"/>
<layer number="47" name="Measures" color="0" fill="1" visible="no" active="no"/>
<layer number="48" name="Document" color="0" fill="1" visible="no" active="no"/>
<layer number="49" name="Reference" color="0" fill="1" visible="no" active="no"/>
<layer number="50" name="dxf" color="0" fill="1" visible="no" active="no"/>
<layer number="51" name="tDocu" color="0" fill="1" visible="no" active="no"/>
<layer number="52" name="bDocu" color="0" fill="1" visible="no" active="no"/>
<layer number="53" name="tGND_GNDA" color="0" fill="9" visible="no" active="no"/>
<layer number="54" name="bGND_GNDA" color="0" fill="9" visible="no" active="no"/>
<layer number="56" name="wert" color="0" fill="1" visible="no" active="no"/>
<layer number="57" name="tCAD" color="0" fill="1" visible="no" active="no"/>
<layer number="59" name="tCarbon" color="0" fill="1" visible="no" active="no"/>
<layer number="60" name="bCarbon" color="0" fill="1" visible="no" active="no"/>
<layer number="88" name="SimResults" color="9" fill="1" visible="yes" active="yes"/>
<layer number="89" name="SimProbes" color="9" fill="1" visible="yes" active="yes"/>
<layer number="90" name="Modules" color="5" fill="1" visible="yes" active="yes"/>
<layer number="91" name="Nets" color="2" fill="1" visible="yes" active="yes"/>
<layer number="92" name="Busses" color="1" fill="1" visible="yes" active="yes"/>
<layer number="93" name="Pins" color="2" fill="1" visible="no" active="yes"/>
<layer number="94" name="Symbols" color="4" fill="1" visible="yes" active="yes"/>
<layer number="95" name="Names" color="7" fill="1" visible="yes" active="yes"/>
<layer number="96" name="Values" color="7" fill="1" visible="yes" active="yes"/>
<layer number="97" name="Info" color="7" fill="1" visible="yes" active="yes"/>
<layer number="98" name="Guide" color="6" fill="1" visible="yes" active="yes"/>
<layer number="99" name="SpiceOrder" color="0" fill="1" visible="yes" active="yes"/>
<layer number="100" name="Muster" color="0" fill="1" visible="no" active="no"/>
<layer number="101" name="Patch_Top" color="0" fill="4" visible="no" active="yes"/>
<layer number="102" name="Vscore" color="0" fill="1" visible="no" active="yes"/>
<layer number="103" name="tMap" color="0" fill="1" visible="no" active="yes"/>
<layer number="104" name="Name" color="0" fill="1" visible="no" active="yes"/>
<layer number="105" name="tPlate" color="0" fill="1" visible="no" active="yes"/>
<layer number="106" name="bPlate" color="0" fill="1" visible="no" active="yes"/>
<layer number="107" name="Crop" color="0" fill="1" visible="no" active="yes"/>
<layer number="108" name="tplace-old" color="0" fill="1" visible="no" active="yes"/>
<layer number="109" name="ref-old" color="0" fill="1" visible="no" active="yes"/>
<layer number="110" name="fp0" color="0" fill="1" visible="no" active="yes"/>
<layer number="111" name="LPC17xx" color="0" fill="1" visible="no" active="yes"/>
<layer number="112" name="tSilk" color="0" fill="1" visible="no" active="yes"/>
<layer number="113" name="IDFDebug" color="0" fill="1" visible="no" active="yes"/>
<layer number="114" name="Badge_Outline" color="0" fill="1" visible="no" active="yes"/>
<layer number="115" name="ReferenceISLANDS" color="0" fill="1" visible="no" active="yes"/>
<layer number="116" name="Patch_BOT" color="0" fill="4" visible="no" active="yes"/>
<layer number="117" name="BACKMAAT1" color="0" fill="1" visible="yes" active="yes"/>
<layer number="118" name="Rect_Pads" color="0" fill="1" visible="no" active="yes"/>
<layer number="119" name="KAP_TEKEN" color="0" fill="1" visible="yes" active="yes"/>
<layer number="120" name="KAP_MAAT1" color="0" fill="1" visible="yes" active="yes"/>
<layer number="121" name="_tsilk" color="0" fill="1" visible="no" active="yes"/>
<layer number="122" name="_bsilk" color="0" fill="1" visible="no" active="yes"/>
<layer number="123" name="tTestmark" color="0" fill="1" visible="no" active="yes"/>
<layer number="124" name="bTestmark" color="0" fill="1" visible="no" active="yes"/>
<layer number="125" name="_tNames" color="0" fill="1" visible="no" active="yes"/>
<layer number="126" name="_bNames" color="0" fill="1" visible="no" active="yes"/>
<layer number="127" name="_tValues" color="0" fill="1" visible="no" active="yes"/>
<layer number="128" name="_bValues" color="0" fill="1" visible="no" active="yes"/>
<layer number="129" name="Mask" color="0" fill="1" visible="no" active="yes"/>
<layer number="130" name="SMDSTROOK" color="0" fill="1" visible="yes" active="yes"/>
<layer number="131" name="tAdjust" color="0" fill="1" visible="no" active="yes"/>
<layer number="132" name="bAdjust" color="0" fill="1" visible="no" active="yes"/>
<layer number="133" name="bottom_silk" color="0" fill="1" visible="yes" active="yes"/>
<layer number="144" name="Drill_legend" color="0" fill="1" visible="no" active="yes"/>
<layer number="150" name="Notes" color="0" fill="1" visible="no" active="yes"/>
<layer number="151" name="HeatSink" color="0" fill="1" visible="no" active="yes"/>
<layer number="152" name="_bDocu" color="0" fill="1" visible="no" active="yes"/>
<layer number="153" name="FabDoc1" color="0" fill="1" visible="no" active="yes"/>
<layer number="154" name="FabDoc2" color="0" fill="1" visible="no" active="yes"/>
<layer number="155" name="FabDoc3" color="0" fill="1" visible="no" active="yes"/>
<layer number="199" name="Contour" color="0" fill="1" visible="no" active="yes"/>
<layer number="200" name="200bmp" color="0" fill="10" visible="no" active="yes"/>
<layer number="201" name="201bmp" color="0" fill="10" visible="no" active="yes"/>
<layer number="202" name="202bmp" color="0" fill="10" visible="no" active="yes"/>
<layer number="203" name="203bmp" color="0" fill="10" visible="no" active="yes"/>
<layer number="204" name="204bmp" color="0" fill="10" visible="no" active="yes"/>
<layer number="205" name="205bmp" color="0" fill="10" visible="no" active="yes"/>
<layer number="206" name="206bmp" color="0" fill="10" visible="no" active="yes"/>
<layer number="207" name="207bmp" color="0" fill="10" visible="no" active="yes"/>
<layer number="208" name="208bmp" color="0" fill="10" visible="no" active="yes"/>
<layer number="209" name="209bmp" color="0" fill="1" visible="no" active="yes"/>
<layer number="210" name="210bmp" color="0" fill="1" visible="no" active="yes"/>
<layer number="211" name="211bmp" color="0" fill="1" visible="no" active="yes"/>
<layer number="212" name="212bmp" color="0" fill="1" visible="no" active="yes"/>
<layer number="213" name="213bmp" color="0" fill="1" visible="no" active="yes"/>
<layer number="214" name="214bmp" color="0" fill="1" visible="no" active="yes"/>
<layer number="215" name="215bmp" color="0" fill="1" visible="no" active="yes"/>
<layer number="216" name="216bmp" color="0" fill="1" visible="no" active="yes"/>
<layer number="217" name="217bmp" color="0" fill="1" visible="no" active="no"/>
<layer number="218" name="218bmp" color="0" fill="1" visible="no" active="no"/>
<layer number="219" name="219bmp" color="0" fill="1" visible="no" active="no"/>
<layer number="220" name="220bmp" color="0" fill="1" visible="no" active="no"/>
<layer number="221" name="221bmp" color="0" fill="1" visible="no" active="no"/>
<layer number="222" name="222bmp" color="0" fill="1" visible="no" active="no"/>
<layer number="223" name="223bmp" color="0" fill="1" visible="no" active="no"/>
<layer number="224" name="224bmp" color="0" fill="1" visible="no" active="no"/>
<layer number="225" name="225bmp" color="0" fill="1" visible="no" active="yes"/>
<layer number="226" name="226bmp" color="0" fill="1" visible="no" active="yes"/>
<layer number="227" name="227bmp" color="0" fill="1" visible="no" active="yes"/>
<layer number="228" name="228bmp" color="0" fill="1" visible="no" active="yes"/>
<layer number="229" name="229bmp" color="0" fill="1" visible="no" active="yes"/>
<layer number="230" name="230bmp" color="0" fill="1" visible="no" active="yes"/>
<layer number="231" name="231bmp" color="0" fill="1" visible="no" active="yes"/>
<layer number="232" name="Eagle3D_PG2" color="0" fill="1" visible="no" active="yes"/>
<layer number="233" name="Eagle3D_PG3" color="0" fill="1" visible="no" active="yes"/>
<layer number="248" name="Housing" color="0" fill="1" visible="no" active="yes"/>
<layer number="249" name="Edge" color="0" fill="1" visible="no" active="yes"/>
<layer number="250" name="Descript" color="0" fill="1" visible="no" active="no"/>
<layer number="251" name="SMDround" color="0" fill="11" visible="no" active="no"/>
<layer number="254" name="cooling" color="0" fill="1" visible="no" active="yes"/>
<layer number="255" name="routoute" color="0" fill="1" visible="no" active="yes"/>
</layers>
<schematic xreflabel="%F%N/%S.%C%R" xrefpart="/%S.%C%R">
<libraries>
<library name="fab">
<packages>
<package name="C1206">
<description>&lt;b&gt;CAPACITOR&lt;/b&gt;</description>
<wire x1="-2.473" y1="0.983" x2="2.473" y2="0.983" width="0.0508" layer="39"/>
<wire x1="2.473" y1="-0.983" x2="-2.473" y2="-0.983" width="0.0508" layer="39"/>
<wire x1="-2.473" y1="-0.983" x2="-2.473" y2="0.983" width="0.0508" layer="39"/>
<wire x1="2.473" y1="0.983" x2="2.473" y2="-0.983" width="0.0508" layer="39"/>
<wire x1="-0.965" y1="0.787" x2="0.965" y2="0.787" width="0.1016" layer="51"/>
<wire x1="-0.965" y1="-0.787" x2="0.965" y2="-0.787" width="0.1016" layer="51"/>
<smd name="1" x="-1.4" y="0" dx="1.6" dy="1.8" layer="1"/>
<smd name="2" x="1.4" y="0" dx="1.6" dy="1.8" layer="1"/>
<text x="-1.27" y="1.27" size="1.27" layer="25">&gt;NAME</text>
<text x="-1.27" y="-2.54" size="1.27" layer="27">&gt;VALUE</text>
<rectangle x1="-1.7018" y1="-0.8509" x2="-0.9517" y2="0.8491" layer="51"/>
<rectangle x1="0.9517" y1="-0.8491" x2="1.7018" y2="0.8509" layer="51"/>
<rectangle x1="-0.1999" y1="-0.4001" x2="0.1999" y2="0.4001" layer="35"/>
</package>
<package name="C1206FAB">
<wire x1="-2.032" y1="1.016" x2="2.032" y2="1.016" width="0.127" layer="21"/>
<wire x1="2.032" y1="1.016" x2="2.032" y2="-1.016" width="0.127" layer="21"/>
<wire x1="2.032" y1="-1.016" x2="-2.032" y2="-1.016" width="0.127" layer="21"/>
<wire x1="-2.032" y1="-1.016" x2="-2.032" y2="1.016" width="0.127" layer="21"/>
<smd name="1" x="-1.651" y="0" dx="1.27" dy="1.905" layer="1"/>
<smd name="2" x="1.651" y="0" dx="1.27" dy="1.905" layer="1"/>
<text x="-1.778" y="1.27" size="1.016" layer="25" ratio="15">&gt;NAME</text>
<text x="-1.778" y="-2.286" size="1.016" layer="27" ratio="15">&gt;VALUE</text>
</package>
<package name="C2220">
<description>&lt;b&gt;CAPACITOR&lt;/b&gt;</description>
<wire x1="-3.743" y1="2.253" x2="3.743" y2="2.253" width="0.0508" layer="39"/>
<wire x1="3.743" y1="-2.253" x2="-3.743" y2="-2.253" width="0.0508" layer="39"/>
<wire x1="-3.743" y1="-2.253" x2="-3.743" y2="2.253" width="0.0508" layer="39"/>
<wire x1="3.743" y1="2.253" x2="3.743" y2="-2.253" width="0.0508" layer="39"/>
<smd name="1" x="-2.794" y="0" dx="2.032" dy="5.334" layer="1"/>
<smd name="2" x="2.794" y="0" dx="2.032" dy="5.334" layer="1"/>
<text x="-2.54" y="2.54" size="1.27" layer="25">&gt;NAME</text>
<text x="-2.54" y="-3.81" size="1.27" layer="27">&gt;VALUE</text>
<rectangle x1="-2.9718" y1="-0.8509" x2="-2.2217" y2="0.8491" layer="51"/>
<rectangle x1="2.2217" y1="-0.8491" x2="2.9718" y2="0.8509" layer="51"/>
</package>
<package name="1X06SMD">
<smd name="1" x="0" y="6.35" dx="2.54" dy="1.27" layer="1"/>
<smd name="2" x="0" y="3.81" dx="2.54" dy="1.27" layer="1"/>
<smd name="3" x="0" y="1.27" dx="2.54" dy="1.27" layer="1"/>
<smd name="4" x="0" y="-1.27" dx="2.54" dy="1.27" layer="1"/>
<smd name="5" x="0" y="-3.81" dx="2.54" dy="1.27" layer="1"/>
<smd name="6" x="0" y="-6.35" dx="2.54" dy="1.27" layer="1"/>
<text x="-1.905" y="-3.175" size="1.27" layer="25" rot="R90">&gt;NAME</text>
</package>
<package name="SOIC8">
<description>&lt;B&gt;Wide Plastic Gull Wing Small Outline Package&lt;/B&gt;</description>
<wire x1="-2.6" y1="2.25" x2="-2.35" y2="2.5" width="0.1524" layer="21" curve="-90" cap="flat"/>
<wire x1="2.35" y1="2.5" x2="2.6" y2="2.25" width="0.1524" layer="21" curve="-90"/>
<wire x1="2.35" y1="-2.5" x2="2.6" y2="-2.25" width="0.1524" layer="21" curve="90" cap="flat"/>
<wire x1="-2.6" y1="-2.25" x2="-2.35" y2="-2.5" width="0.1524" layer="21" curve="90" cap="flat"/>
<wire x1="2.36" y1="-2.5" x2="-2.34" y2="-2.5" width="0.1524" layer="51"/>
<wire x1="-2.34" y1="2.5" x2="2.36" y2="2.5" width="0.1524" layer="51"/>
<wire x1="-2.21" y1="2.5" x2="-2.34" y2="2.5" width="0.1524" layer="21"/>
<wire x1="-1.59" y1="2.5" x2="-0.95" y2="2.5" width="0.1524" layer="21"/>
<wire x1="-0.32" y1="2.5" x2="0.32" y2="2.5" width="0.1524" layer="21"/>
<wire x1="0.95" y1="2.5" x2="1.59" y2="2.5" width="0.1524" layer="21"/>
<wire x1="2.21" y1="2.5" x2="2.36" y2="2.5" width="0.1524" layer="21"/>
<wire x1="2.2" y1="-2.5" x2="2.33" y2="-2.5" width="0.1524" layer="21"/>
<wire x1="1.59" y1="-2.5" x2="0.94" y2="-2.5" width="0.1524" layer="21"/>
<wire x1="0.32" y1="-2.5" x2="-0.33" y2="-2.5" width="0.1524" layer="21"/>
<wire x1="-0.95" y1="-2.5" x2="-1.59" y2="-2.5" width="0.1524" layer="21"/>
<wire x1="-2.21" y1="-2.5" x2="-2.34" y2="-2.5" width="0.1524" layer="21"/>
<wire x1="-2.6" y1="2.25" x2="-2.6" y2="-2.24" width="0.1524" layer="21"/>
<wire x1="2.6" y1="-2.25" x2="2.6" y2="2.25" width="0.1524" layer="21"/>
<circle x="-1.42" y="-1.115" radius="0.5" width="0.0508" layer="21"/>
<smd name="1" x="-1.905" y="-3.154" dx="0.5" dy="2.2" layer="1"/>
<smd name="2" x="-0.645" y="-3.154" dx="0.5" dy="2.2" layer="1"/>
<smd name="3" x="0.625" y="-3.154" dx="0.5" dy="2.2" layer="1"/>
<smd name="4" x="1.895" y="-3.154" dx="0.5" dy="2.2" layer="1"/>
<smd name="8" x="-1.905" y="3.154" dx="0.5" dy="2.2" layer="1"/>
<smd name="7" x="-0.635" y="3.154" dx="0.5" dy="2.2" layer="1"/>
<smd name="6" x="0.635" y="3.154" dx="0.5" dy="2.2" layer="1"/>
<smd name="5" x="1.905" y="3.154" dx="0.5" dy="2.2" layer="1"/>
<text x="-2.8575" y="-2.159" size="1.27" layer="25" ratio="10" rot="R90">&gt;NAME</text>
<text x="4.064" y="-2.159" size="1.27" layer="27" ratio="10" rot="R90">&gt;VALUE</text>
<rectangle x1="-2.08" y1="2.5" x2="-1.73" y2="3.4" layer="51"/>
<rectangle x1="-0.81" y1="2.5" x2="-0.46" y2="3.4" layer="51"/>
<rectangle x1="0.46" y1="2.5" x2="0.81" y2="3.4" layer="51"/>
<rectangle x1="1.73" y1="2.5" x2="2.08" y2="3.4" layer="51"/>
<rectangle x1="1.72" y1="-3.4" x2="2.07" y2="-2.5" layer="51"/>
<rectangle x1="0.45" y1="-3.4" x2="0.8" y2="-2.5" layer="51"/>
<rectangle x1="-0.82" y1="-3.4" x2="-0.47" y2="-2.5" layer="51"/>
<rectangle x1="-2.08" y1="-3.4" x2="-1.73" y2="-2.5" layer="51"/>
</package>
<package name="6MM_SWITCH">
<description>&lt;b&gt;OMRON SWITCH&lt;/b&gt;</description>
<wire x1="3.302" y1="-0.762" x2="3.048" y2="-0.762" width="0.1524" layer="21"/>
<wire x1="3.302" y1="-0.762" x2="3.302" y2="0.762" width="0.1524" layer="21"/>
<wire x1="3.048" y1="0.762" x2="3.302" y2="0.762" width="0.1524" layer="21"/>
<wire x1="3.048" y1="1.016" x2="3.048" y2="2.54" width="0.1524" layer="51"/>
<wire x1="-3.302" y1="0.762" x2="-3.048" y2="0.762" width="0.1524" layer="21"/>
<wire x1="-3.302" y1="0.762" x2="-3.302" y2="-0.762" width="0.1524" layer="21"/>
<wire x1="-3.048" y1="-0.762" x2="-3.302" y2="-0.762" width="0.1524" layer="21"/>
<wire x1="3.048" y1="2.54" x2="2.54" y2="3.048" width="0.1524" layer="51"/>
<wire x1="2.54" y1="-3.048" x2="3.048" y2="-2.54" width="0.1524" layer="51"/>
<wire x1="3.048" y1="-2.54" x2="3.048" y2="-1.016" width="0.1524" layer="51"/>
<wire x1="-2.54" y1="3.048" x2="-3.048" y2="2.54" width="0.1524" layer="51"/>
<wire x1="-3.048" y1="2.54" x2="-3.048" y2="1.016" width="0.1524" layer="51"/>
<wire x1="-2.54" y1="-3.048" x2="-3.048" y2="-2.54" width="0.1524" layer="51"/>
<wire x1="-3.048" y1="-2.54" x2="-3.048" y2="-1.016" width="0.1524" layer="51"/>
<wire x1="-1.27" y1="1.27" x2="-1.27" y2="-1.27" width="0.0508" layer="51"/>
<wire x1="1.27" y1="-1.27" x2="-1.27" y2="-1.27" width="0.0508" layer="51"/>
<wire x1="1.27" y1="-1.27" x2="1.27" y2="1.27" width="0.0508" layer="51"/>
<wire x1="-1.27" y1="1.27" x2="1.27" y2="1.27" width="0.0508" layer="51"/>
<wire x1="-1.27" y1="3.048" x2="-1.27" y2="2.794" width="0.0508" layer="21"/>
<wire x1="1.27" y1="2.794" x2="-1.27" y2="2.794" width="0.0508" layer="21"/>
<wire x1="1.27" y1="2.794" x2="1.27" y2="3.048" width="0.0508" layer="21"/>
<wire x1="1.143" y1="-2.794" x2="-1.27" y2="-2.794" width="0.0508" layer="21"/>
<wire x1="1.143" y1="-2.794" x2="1.143" y2="-3.048" width="0.0508" layer="21"/>
<wire x1="-1.27" y1="-2.794" x2="-1.27" y2="-3.048" width="0.0508" layer="21"/>
<wire x1="2.54" y1="-3.048" x2="2.159" y2="-3.048" width="0.1524" layer="51"/>
<wire x1="-2.54" y1="-3.048" x2="-2.159" y2="-3.048" width="0.1524" layer="51"/>
<wire x1="-2.159" y1="-3.048" x2="-1.27" y2="-3.048" width="0.1524" layer="21"/>
<wire x1="-2.54" y1="3.048" x2="-2.159" y2="3.048" width="0.1524" layer="51"/>
<wire x1="2.54" y1="3.048" x2="2.159" y2="3.048" width="0.1524" layer="51"/>
<wire x1="2.159" y1="3.048" x2="1.27" y2="3.048" width="0.1524" layer="21"/>
<wire x1="1.27" y1="3.048" x2="-1.27" y2="3.048" width="0.1524" layer="21"/>
<wire x1="-1.27" y1="3.048" x2="-2.159" y2="3.048" width="0.1524" layer="21"/>
<wire x1="-1.27" y1="-3.048" x2="1.143" y2="-3.048" width="0.1524" layer="21"/>
<wire x1="1.143" y1="-3.048" x2="2.159" y2="-3.048" width="0.1524" layer="21"/>
<wire x1="3.048" y1="-0.762" x2="3.048" y2="-1.016" width="0.1524" layer="21"/>
<wire x1="3.048" y1="0.762" x2="3.048" y2="1.016" width="0.1524" layer="21"/>
<wire x1="-3.048" y1="-0.762" x2="-3.048" y2="-1.016" width="0.1524" layer="21"/>
<wire x1="-3.048" y1="0.762" x2="-3.048" y2="1.016" width="0.1524" layer="21"/>
<wire x1="-1.27" y1="-2.159" x2="1.27" y2="-2.159" width="0.1524" layer="51"/>
<wire x1="1.27" y1="2.286" x2="-1.27" y2="2.286" width="0.1524" layer="51"/>
<wire x1="-2.413" y1="1.27" x2="-2.413" y2="0.508" width="0.1524" layer="51"/>
<wire x1="-2.413" y1="-0.508" x2="-2.413" y2="-1.27" width="0.1524" layer="51"/>
<wire x1="-2.413" y1="0.508" x2="-2.159" y2="-0.381" width="0.1524" layer="51"/>
<circle x="0" y="0" radius="1.778" width="0.1524" layer="21"/>
<circle x="-2.159" y="-2.159" radius="0.508" width="0.1524" layer="51"/>
<circle x="2.159" y="-2.032" radius="0.508" width="0.1524" layer="51"/>
<circle x="2.159" y="2.159" radius="0.508" width="0.1524" layer="51"/>
<circle x="-2.159" y="2.159" radius="0.508" width="0.1524" layer="51"/>
<circle x="0" y="0" radius="0.635" width="0.0508" layer="51"/>
<circle x="0" y="0" radius="0.254" width="0.1524" layer="21"/>
<smd name="1" x="-3.302" y="2.286" dx="2.286" dy="1.524" layer="1"/>
<smd name="2" x="3.302" y="2.286" dx="2.286" dy="1.524" layer="1"/>
<smd name="3" x="-3.302" y="-2.286" dx="2.286" dy="1.524" layer="1"/>
<smd name="4" x="3.302" y="-2.286" dx="2.286" dy="1.524" layer="1"/>
<text x="-3.048" y="3.683" size="1.27" layer="25" ratio="10">&gt;NAME</text>
<text x="-3.048" y="-5.08" size="1.27" layer="27" ratio="10">&gt;VALUE</text>
<text x="-4.318" y="1.651" size="1.27" layer="51" ratio="10">1</text>
<text x="3.556" y="1.524" size="1.27" layer="51" ratio="10">2</text>
<text x="-4.572" y="-2.794" size="1.27" layer="51" ratio="10">3</text>
<text x="3.556" y="-2.794" size="1.27" layer="51" ratio="10">4</text>
</package>
<package name="2X03SMD">
<smd name="1" x="-2.54" y="2.54" dx="2.54" dy="1.27" layer="1"/>
<smd name="3" x="-2.54" y="0" dx="2.54" dy="1.27" layer="1"/>
<smd name="5" x="-2.54" y="-2.54" dx="2.54" dy="1.27" layer="1"/>
<smd name="2" x="2.92" y="2.54" dx="2.54" dy="1.27" layer="1"/>
<smd name="4" x="2.92" y="0" dx="2.54" dy="1.27" layer="1"/>
<smd name="6" x="2.92" y="-2.54" dx="2.54" dy="1.27" layer="1"/>
<text x="-5.08" y="2.54" size="1.27" layer="27">1</text>
<text x="-3.81" y="3.81" size="1.27" layer="25">&gt;NAME</text>
<text x="-3.81" y="-5.08" size="1.27" layer="27">&gt;VALUE</text>
</package>
<package name="LED1206">
<description>LED 1206 pads (standard pattern)</description>
<wire x1="0.9525" y1="-0.8128" x2="-0.9652" y2="-0.8128" width="0.1524" layer="51"/>
<wire x1="0.9525" y1="0.8128" x2="-0.9652" y2="0.8128" width="0.1524" layer="51"/>
<wire x1="-2.473" y1="0.983" x2="2.473" y2="0.983" width="0.0508" layer="39"/>
<wire x1="2.473" y1="0.983" x2="2.473" y2="-0.983" width="0.0508" layer="39"/>
<wire x1="2.473" y1="-0.983" x2="-2.473" y2="-0.983" width="0.0508" layer="39"/>
<wire x1="-2.473" y1="-0.983" x2="-2.473" y2="0.983" width="0.0508" layer="39"/>
<smd name="2" x="1.422" y="0" dx="1.6" dy="1.803" layer="1"/>
<smd name="1" x="-1.422" y="0" dx="1.6" dy="1.803" layer="1"/>
<text x="-1.27" y="1.27" size="1.27" layer="25">&gt;NAME</text>
<text x="-1.27" y="-2.54" size="1.27" layer="27">&gt;VALUE</text>
<rectangle x1="-1.6891" y1="-0.8763" x2="-0.9525" y2="0.8763" layer="51"/>
<rectangle x1="0.9525" y1="-0.8763" x2="1.6891" y2="0.8763" layer="51"/>
</package>
<package name="LED1206FAB">
<description>LED1206 FAB style (smaller pads to allow trace between)</description>
<wire x1="-2.032" y1="1.016" x2="2.032" y2="1.016" width="0.127" layer="21"/>
<wire x1="2.032" y1="1.016" x2="2.032" y2="-1.016" width="0.127" layer="21"/>
<wire x1="2.032" y1="-1.016" x2="-2.032" y2="-1.016" width="0.127" layer="21"/>
<wire x1="-2.032" y1="-1.016" x2="-2.032" y2="1.016" width="0.127" layer="21"/>
<smd name="1" x="-1.651" y="0" dx="1.27" dy="1.905" layer="1"/>
<smd name="2" x="1.651" y="0" dx="1.27" dy="1.905" layer="1"/>
<text x="-1.778" y="1.27" size="1.016" layer="25" ratio="15">&gt;NAME</text>
<text x="-1.778" y="-2.286" size="1.016" layer="27" ratio="15">&gt;VALUE</text>
</package>
<package name="5MM">
<description>5mm round through hole part.</description>
<wire x1="2.54" y1="-1.905" x2="2.54" y2="1.905" width="0.2032" layer="21"/>
<wire x1="2.54" y1="-1.905" x2="2.54" y2="1.905" width="0.254" layer="21" curve="-286.260205" cap="flat"/>
<wire x1="-1.143" y1="0" x2="0" y2="1.143" width="0.1524" layer="51" curve="-90" cap="flat"/>
<wire x1="0" y1="-1.143" x2="1.143" y2="0" width="0.1524" layer="51" curve="90" cap="flat"/>
<wire x1="-1.651" y1="0" x2="0" y2="1.651" width="0.1524" layer="51" curve="-90" cap="flat"/>
<wire x1="0" y1="-1.651" x2="1.651" y2="0" width="0.1524" layer="51" curve="90" cap="flat"/>
<wire x1="-2.159" y1="0" x2="0" y2="2.159" width="0.1524" layer="51" curve="-90" cap="flat"/>
<wire x1="0" y1="-2.159" x2="2.159" y2="0" width="0.1524" layer="51" curve="90" cap="flat"/>
<circle x="0" y="0" radius="2.54" width="0.1524" layer="21"/>
<pad name="IN" x="-1.27" y="0" drill="0.8128" diameter="1.4224"/>
<pad name="OUT" x="1.27" y="0" drill="0.8128" diameter="1.4224"/>
<text x="3.175" y="0.5334" size="1.27" layer="25" ratio="10">&gt;NAME</text>
<text x="3.2004" y="-1.8034" size="1.27" layer="27" ratio="10">&gt;VALUE</text>
</package>
<package name="R1206">
<description>&lt;b&gt;RESISTOR&lt;/b&gt;</description>
<wire x1="0.9525" y1="-0.8128" x2="-0.9652" y2="-0.8128" width="0.1524" layer="51"/>
<wire x1="0.9525" y1="0.8128" x2="-0.9652" y2="0.8128" width="0.1524" layer="51"/>
<wire x1="-2.473" y1="0.983" x2="2.473" y2="0.983" width="0.0508" layer="39"/>
<wire x1="2.473" y1="0.983" x2="2.473" y2="-0.983" width="0.0508" layer="39"/>
<wire x1="2.473" y1="-0.983" x2="-2.473" y2="-0.983" width="0.0508" layer="39"/>
<wire x1="-2.473" y1="-0.983" x2="-2.473" y2="0.983" width="0.0508" layer="39"/>
<smd name="2" x="1.422" y="0" dx="1.6" dy="1.803" layer="1"/>
<smd name="1" x="-1.422" y="0" dx="1.6" dy="1.803" layer="1"/>
<text x="-1.27" y="1.27" size="1.27" layer="25">&gt;NAME</text>
<text x="-1.27" y="-2.54" size="1.27" layer="27">&gt;VALUE</text>
<rectangle x1="-1.6891" y1="-0.8763" x2="-0.9525" y2="0.8763" layer="51"/>
<rectangle x1="0.9525" y1="-0.8763" x2="1.6891" y2="0.8763" layer="51"/>
<rectangle x1="-0.3" y1="-0.7" x2="0.3" y2="0.7" layer="35"/>
</package>
<package name="R1206W">
<description>&lt;b&gt;RESISTOR&lt;/b&gt;&lt;p&gt;
wave soldering</description>
<wire x1="-0.913" y1="0.8" x2="0.888" y2="0.8" width="0.1524" layer="51"/>
<wire x1="-0.913" y1="-0.8" x2="0.888" y2="-0.8" width="0.1524" layer="51"/>
<wire x1="-2.473" y1="0.983" x2="2.473" y2="0.983" width="0.0508" layer="39"/>
<wire x1="2.473" y1="0.983" x2="2.473" y2="-0.983" width="0.0508" layer="39"/>
<wire x1="2.473" y1="-0.983" x2="-2.473" y2="-0.983" width="0.0508" layer="39"/>
<wire x1="-2.473" y1="-0.983" x2="-2.473" y2="0.983" width="0.0508" layer="39"/>
<smd name="1" x="-1.499" y="0" dx="1.8" dy="1.2" layer="1"/>
<smd name="2" x="1.499" y="0" dx="1.8" dy="1.2" layer="1"/>
<text x="-1.905" y="1.27" size="1.27" layer="25">&gt;NAME</text>
<text x="-1.905" y="-2.54" size="1.27" layer="27">&gt;VALUE</text>
<rectangle x1="-1.651" y1="-0.8763" x2="-0.9009" y2="0.8738" layer="51"/>
<rectangle x1="0.889" y1="-0.8763" x2="1.6391" y2="0.8738" layer="51"/>
<rectangle x1="-0.3" y1="-0.7" x2="0.3" y2="0.7" layer="35"/>
</package>
<package name="R1206FAB">
<wire x1="-2.032" y1="1.016" x2="2.032" y2="1.016" width="0.127" layer="21"/>
<wire x1="2.032" y1="1.016" x2="2.032" y2="-1.016" width="0.127" layer="21"/>
<wire x1="2.032" y1="-1.016" x2="-2.032" y2="-1.016" width="0.127" layer="21"/>
<wire x1="-2.032" y1="-1.016" x2="-2.032" y2="1.016" width="0.127" layer="21"/>
<smd name="1" x="-1.651" y="0" dx="1.27" dy="1.905" layer="1"/>
<smd name="2" x="1.651" y="0" dx="1.27" dy="1.905" layer="1"/>
<text x="-1.778" y="1.27" size="1.016" layer="25" ratio="15">&gt;NAME</text>
<text x="-1.778" y="-2.286" size="1.016" layer="27" ratio="15">&gt;VALUE</text>
</package>
</packages>
<symbols>
<symbol name="CAP-NONPOLARIZED">
<description>non-polarized capacitor</description>
<wire x1="-1.778" y1="1.524" x2="-1.778" y2="0" width="0.254" layer="94"/>
<wire x1="-1.778" y1="0" x2="-1.778" y2="-1.524" width="0.254" layer="94"/>
<wire x1="-0.762" y1="1.524" x2="-0.762" y2="0" width="0.254" layer="94"/>
<wire x1="-0.762" y1="0" x2="-0.762" y2="-1.524" width="0.254" layer="94"/>
<wire x1="-2.54" y1="0" x2="-1.778" y2="0" width="0.1524" layer="94"/>
<wire x1="-0.762" y1="0" x2="0" y2="0" width="0.1524" layer="94"/>
<text x="-3.81" y="2.54" size="1.778" layer="95">&gt;NAME</text>
<text x="-3.81" y="-3.81" size="1.778" layer="96">&gt;VALUE</text>
<pin name="1" x="-5.08" y="0" visible="off" length="short" direction="pas" swaplevel="1"/>
<pin name="2" x="2.54" y="0" visible="off" length="short" direction="pas" swaplevel="1" rot="R180"/>
</symbol>
<symbol name="FTDI">
<pin name="GND" x="0" y="12.7" length="middle"/>
<pin name="CTS" x="0" y="10.16" length="middle"/>
<pin name="VCC" x="0" y="7.62" length="middle"/>
<pin name="TXD" x="0" y="5.08" length="middle"/>
<pin name="RXD" x="0" y="2.54" length="middle"/>
<wire x1="12.7" y1="17.018" x2="2.54" y2="17.018" width="0.254" layer="94"/>
<wire x1="2.54" y1="17.018" x2="2.54" y2="-4.064" width="0.254" layer="94"/>
<wire x1="2.54" y1="-4.064" x2="12.7" y2="-4.064" width="0.254" layer="94"/>
<wire x1="12.7" y1="-4.064" x2="12.7" y2="17.018" width="0.254" layer="94"/>
<pin name="RTS" x="0" y="0" length="middle"/>
<text x="3.81" y="14.478" size="1.778" layer="95">(Black)</text>
<text x="3.302" y="-3.048" size="1.778" layer="95">(Green)</text>
</symbol>
<symbol name="ATTINY45">
<wire x1="-52.07" y1="7.493" x2="-52.07" y2="5.08" width="0.4064" layer="94"/>
<wire x1="-52.07" y1="5.08" x2="-52.07" y2="2.54" width="0.4064" layer="94"/>
<wire x1="-52.07" y1="2.54" x2="-52.07" y2="0" width="0.4064" layer="94"/>
<wire x1="-52.07" y1="0" x2="-52.07" y2="-2.54" width="0.4064" layer="94"/>
<wire x1="-52.07" y1="-2.54" x2="-52.07" y2="-5.08" width="0.4064" layer="94"/>
<wire x1="-52.07" y1="-5.08" x2="34.29" y2="-5.08" width="0.4064" layer="94"/>
<wire x1="34.29" y1="-5.08" x2="34.29" y2="-2.54" width="0.4064" layer="94"/>
<wire x1="34.29" y1="-2.54" x2="34.29" y2="0" width="0.4064" layer="94"/>
<wire x1="34.29" y1="0" x2="34.29" y2="2.54" width="0.4064" layer="94"/>
<wire x1="34.29" y1="2.54" x2="34.29" y2="5.08" width="0.4064" layer="94"/>
<wire x1="34.29" y1="5.08" x2="34.29" y2="7.493" width="0.4064" layer="94"/>
<wire x1="34.29" y1="7.493" x2="-52.07" y2="7.493" width="0.4064" layer="94"/>
<wire x1="-53.34" y1="5.08" x2="-52.07" y2="5.08" width="0.254" layer="94"/>
<wire x1="-53.34" y1="2.54" x2="-52.07" y2="2.54" width="0.254" layer="94"/>
<wire x1="-53.34" y1="0" x2="-52.07" y2="0" width="0.254" layer="94"/>
<wire x1="-53.34" y1="-2.54" x2="-52.07" y2="-2.54" width="0.254" layer="94"/>
<wire x1="34.29" y1="5.08" x2="35.56" y2="5.08" width="0.254" layer="94"/>
<wire x1="34.29" y1="2.54" x2="35.56" y2="2.54" width="0.254" layer="94"/>
<wire x1="34.29" y1="0" x2="35.56" y2="0" width="0.254" layer="94"/>
<wire x1="34.29" y1="-2.54" x2="35.56" y2="-2.54" width="0.254" layer="94"/>
<text x="5.08" y="-7.62" size="1.778" layer="95">&gt;NAME</text>
<text x="-31.75" y="-7.62" size="1.778" layer="96">ATtiny45</text>
<rectangle x1="-51.816" y1="5.969" x2="-50.546" y2="7.239" layer="94"/>
<pin name="GND" x="-53.34" y="-2.54" length="point"/>
<pin name="PB5/PCINT5/-RESET/ADC0/DW" x="-53.34" y="5.08" length="point"/>
<pin name="PB3/PCINT3/XTAL1/CLKI/-OC1B/ADC3" x="-53.34" y="2.54" length="point"/>
<pin name="PB4/PCINT4/XTAL2/CLKO/OC1B/ADC2" x="-53.34" y="0" length="point"/>
<pin name="VCC" x="35.56" y="5.08" length="point" rot="R180"/>
<pin name="SCK/USCK/SCL/ADC1/T0/INT0/PCINT2/PB2" x="35.56" y="2.54" length="point" rot="R180"/>
<pin name="MISO/DO/AIN1/OC0B/OC1A/PCINT1/PB1" x="35.56" y="0" length="point" rot="R180"/>
<pin name="MOSI/DI/SDA/AIN0/OC0A/-OC1A/AREF/PCINT0/PB0" x="35.56" y="-2.54" length="point" rot="R180"/>
</symbol>
<symbol name="TS2">
<wire x1="0" y1="1.905" x2="0" y2="2.54" width="0.254" layer="94"/>
<wire x1="-4.445" y1="1.905" x2="-3.175" y2="1.905" width="0.254" layer="94"/>
<wire x1="-4.445" y1="-1.905" x2="-3.175" y2="-1.905" width="0.254" layer="94"/>
<wire x1="-4.445" y1="1.905" x2="-4.445" y2="0" width="0.254" layer="94"/>
<wire x1="-4.445" y1="0" x2="-4.445" y2="-1.905" width="0.254" layer="94"/>
<wire x1="-2.54" y1="0" x2="-1.905" y2="0" width="0.1524" layer="94"/>
<wire x1="-1.27" y1="0" x2="-0.635" y2="0" width="0.1524" layer="94"/>
<wire x1="-4.445" y1="0" x2="-3.175" y2="0" width="0.1524" layer="94"/>
<wire x1="2.54" y1="2.54" x2="0" y2="2.54" width="0.1524" layer="94"/>
<wire x1="2.54" y1="-2.54" x2="0" y2="-2.54" width="0.1524" layer="94"/>
<wire x1="0" y1="-2.54" x2="-1.27" y2="1.905" width="0.254" layer="94"/>
<circle x="0" y="-2.54" radius="0.127" width="0.4064" layer="94"/>
<circle x="0" y="2.54" radius="0.127" width="0.4064" layer="94"/>
<text x="-6.35" y="-2.54" size="1.778" layer="95" rot="R90">&gt;NAME</text>
<text x="-3.81" y="3.175" size="1.778" layer="96" rot="R90">&gt;VALUE</text>
<pin name="P" x="0" y="-5.08" visible="pad" length="short" direction="pas" swaplevel="2" rot="R90"/>
<pin name="S" x="0" y="5.08" visible="pad" length="short" direction="pas" swaplevel="1" rot="R270"/>
<pin name="S1" x="2.54" y="5.08" visible="pad" length="short" direction="pas" swaplevel="1" rot="R270"/>
<pin name="P1" x="2.54" y="-5.08" visible="pad" length="short" direction="pas" swaplevel="2" rot="R90"/>
</symbol>
<symbol name="PINH2X3">
<wire x1="-6.35" y1="-5.08" x2="8.89" y2="-5.08" width="0.4064" layer="94"/>
<wire x1="8.89" y1="-5.08" x2="8.89" y2="5.08" width="0.4064" layer="94"/>
<wire x1="8.89" y1="5.08" x2="-6.35" y2="5.08" width="0.4064" layer="94"/>
<wire x1="-6.35" y1="5.08" x2="-6.35" y2="-5.08" width="0.4064" layer="94"/>
<text x="-6.35" y="5.715" size="1.778" layer="95">&gt;NAME</text>
<text x="-6.35" y="-7.62" size="1.778" layer="96">&gt;VALUE</text>
<pin name="1" x="-2.54" y="2.54" visible="pad" length="short" direction="pas" function="dot"/>
<pin name="2" x="5.08" y="2.54" visible="pad" length="short" direction="pas" function="dot" rot="R180"/>
<pin name="3" x="-2.54" y="0" visible="pad" length="short" direction="pas" function="dot"/>
<pin name="4" x="5.08" y="0" visible="pad" length="short" direction="pas" function="dot" rot="R180"/>
<pin name="5" x="-2.54" y="-2.54" visible="pad" length="short" direction="pas" function="dot"/>
<pin name="6" x="5.08" y="-2.54" visible="pad" length="short" direction="pas" function="dot" rot="R180"/>
</symbol>
<symbol name="LED">
<description>LED</description>
<wire x1="1.27" y1="2.54" x2="0" y2="0" width="0.254" layer="94"/>
<wire x1="0" y1="0" x2="-1.27" y2="2.54" width="0.254" layer="94"/>
<wire x1="1.27" y1="0" x2="0" y2="0" width="0.254" layer="94"/>
<wire x1="0" y1="0" x2="-1.27" y2="0" width="0.254" layer="94"/>
<wire x1="1.27" y1="2.54" x2="0" y2="2.54" width="0.254" layer="94"/>
<wire x1="0" y1="2.54" x2="-1.27" y2="2.54" width="0.254" layer="94"/>
<wire x1="0" y1="2.54" x2="0" y2="0" width="0.1524" layer="94"/>
<wire x1="-2.032" y1="1.778" x2="-3.429" y2="0.381" width="0.1524" layer="94"/>
<wire x1="-1.905" y1="0.635" x2="-3.302" y2="-0.762" width="0.1524" layer="94"/>
<text x="3.556" y="-2.032" size="1.778" layer="95" rot="R90">&gt;NAME</text>
<text x="5.715" y="-2.032" size="1.778" layer="96" rot="R90">&gt;VALUE</text>
<pin name="C" x="0" y="-2.54" visible="off" length="short" direction="pas" rot="R90"/>
<pin name="A" x="0" y="5.08" visible="off" length="short" direction="pas" rot="R270"/>
</symbol>
<symbol name="R-US">
<wire x1="-2.54" y1="0" x2="-2.159" y2="1.016" width="0.2032" layer="94"/>
<wire x1="-2.159" y1="1.016" x2="-1.524" y2="-1.016" width="0.2032" layer="94"/>
<wire x1="-1.524" y1="-1.016" x2="-0.889" y2="1.016" width="0.2032" layer="94"/>
<wire x1="-0.889" y1="1.016" x2="-0.254" y2="-1.016" width="0.2032" layer="94"/>
<wire x1="-0.254" y1="-1.016" x2="0.381" y2="1.016" width="0.2032" layer="94"/>
<wire x1="0.381" y1="1.016" x2="1.016" y2="-1.016" width="0.2032" layer="94"/>
<wire x1="1.016" y1="-1.016" x2="1.651" y2="1.016" width="0.2032" layer="94"/>
<wire x1="1.651" y1="1.016" x2="2.286" y2="-1.016" width="0.2032" layer="94"/>
<wire x1="2.286" y1="-1.016" x2="2.54" y2="0" width="0.2032" layer="94"/>
<text x="-3.81" y="1.4986" size="1.778" layer="95">&gt;NAME</text>
<text x="-3.81" y="-3.302" size="1.778" layer="96">&gt;VALUE</text>
<pin name="2" x="5.08" y="0" visible="off" length="short" direction="pas" swaplevel="1" rot="R180"/>
<pin name="1" x="-5.08" y="0" visible="off" length="short" direction="pas" swaplevel="1"/>
</symbol>
</symbols>
<devicesets>
<deviceset name="CAP_UNPOLARIZED" prefix="C" uservalue="yes">
<gates>
<gate name="&gt;NAME" symbol="CAP-NONPOLARIZED" x="0" y="0"/>
</gates>
<devices>
<device name="" package="C1206">
<connects>
<connect gate="&gt;NAME" pin="1" pad="1"/>
<connect gate="&gt;NAME" pin="2" pad="2"/>
</connects>
<technologies>
<technology name=""/>
</technologies>
</device>
<device name="FAB" package="C1206FAB">
<connects>
<connect gate="&gt;NAME" pin="1" pad="1"/>
<connect gate="&gt;NAME" pin="2" pad="2"/>
</connects>
<technologies>
<technology name=""/>
</technologies>
</device>
<device name="2220" package="C2220">
<connects>
<connect gate="&gt;NAME" pin="1" pad="1"/>
<connect gate="&gt;NAME" pin="2" pad="2"/>
</connects>
<technologies>
<technology name=""/>
</technologies>
</device>
</devices>
</deviceset>
<deviceset name="CONN_06_FTDI-SMD-HEADER">
<gates>
<gate name="G$1" symbol="FTDI" x="-7.62" y="-5.08"/>
</gates>
<devices>
<device name="" package="1X06SMD">
<connects>
<connect gate="G$1" pin="CTS" pad="2"/>
<connect gate="G$1" pin="GND" pad="1"/>
<connect gate="G$1" pin="RTS" pad="6"/>
<connect gate="G$1" pin="RXD" pad="5"/>
<connect gate="G$1" pin="TXD" pad="4"/>
<connect gate="G$1" pin="VCC" pad="3"/>
</connects>
<technologies>
<technology name=""/>
</technologies>
</device>
</devices>
</deviceset>
<deviceset name="UC_ATTINY45">
<gates>
<gate name="G$1" symbol="ATTINY45" x="10.16" y="0"/>
</gates>
<devices>
<device name="SI" package="SOIC8">
<connects>
<connect gate="G$1" pin="GND" pad="4"/>
<connect gate="G$1" pin="MISO/DO/AIN1/OC0B/OC1A/PCINT1/PB1" pad="6"/>
<connect gate="G$1" pin="MOSI/DI/SDA/AIN0/OC0A/-OC1A/AREF/PCINT0/PB0" pad="5"/>
<connect gate="G$1" pin="PB3/PCINT3/XTAL1/CLKI/-OC1B/ADC3" pad="2"/>
<connect gate="G$1" pin="PB4/PCINT4/XTAL2/CLKO/OC1B/ADC2" pad="3"/>
<connect gate="G$1" pin="PB5/PCINT5/-RESET/ADC0/DW" pad="1"/>
<connect gate="G$1" pin="SCK/USCK/SCL/ADC1/T0/INT0/PCINT2/PB2" pad="7"/>
<connect gate="G$1" pin="VCC" pad="8"/>
</connects>
<technologies>
<technology name=""/>
</technologies>
</device>
</devices>
</deviceset>
<deviceset name="SW_SWITCH_TACTILE_6MM" prefix="S" uservalue="yes">
<description>&lt;b&gt;OMRON SWITCH&lt;/b&gt;</description>
<gates>
<gate name="2" symbol="TS2" x="0" y="0"/>
</gates>
<devices>
<device name="6MM_SWITCH" package="6MM_SWITCH">
<connects>
<connect gate="2" pin="P" pad="1"/>
<connect gate="2" pin="P1" pad="2"/>
<connect gate="2" pin="S" pad="3"/>
<connect gate="2" pin="S1" pad="4"/>
</connects>
<technologies>
<technology name=""/>
</technologies>
</device>
</devices>
</deviceset>
<deviceset name="CONN_03X2-PINHEAD-SMD" prefix="JP" uservalue="yes">
<description>&lt;b&gt;PIN HEADER&lt;/b&gt;</description>
<gates>
<gate name="A" symbol="PINH2X3" x="0" y="0"/>
</gates>
<devices>
<device name="" package="2X03SMD">
<connects>
<connect gate="A" pin="1" pad="1"/>
<connect gate="A" pin="2" pad="2"/>
<connect gate="A" pin="3" pad="3"/>
<connect gate="A" pin="4" pad="4"/>
<connect gate="A" pin="5" pad="5"/>
<connect gate="A" pin="6" pad="6"/>
</connects>
<technologies>
<technology name=""/>
</technologies>
</device>
</devices>
</deviceset>
<deviceset name="LED">
<description>LED</description>
<gates>
<gate name="G$1" symbol="LED" x="0" y="0"/>
</gates>
<devices>
<device name="" package="LED1206">
<connects>
<connect gate="G$1" pin="A" pad="1"/>
<connect gate="G$1" pin="C" pad="2"/>
</connects>
<technologies>
<technology name=""/>
</technologies>
</device>
<device name="FAB1206" package="LED1206FAB">
<connects>
<connect gate="G$1" pin="A" pad="1"/>
<connect gate="G$1" pin="C" pad="2"/>
</connects>
<technologies>
<technology name=""/>
</technologies>
</device>
<device name="5MM" package="5MM">
<connects>
<connect gate="G$1" pin="A" pad="IN"/>
<connect gate="G$1" pin="C" pad="OUT"/>
</connects>
<technologies>
<technology name=""/>
</technologies>
</device>
</devices>
</deviceset>
<deviceset name="R" prefix="R" uservalue="yes">
<description>&lt;b&gt;Resistor (US Symbol)&lt;/b&gt;
&lt;p&gt;
Variants with postfix FAB are widened to allow the routing of internal traces</description>
<gates>
<gate name="G$1" symbol="R-US" x="0" y="0"/>
</gates>
<devices>
<device name="1206" package="R1206">
<connects>
<connect gate="G$1" pin="1" pad="1"/>
<connect gate="G$1" pin="2" pad="2"/>
</connects>
<technologies>
<technology name=""/>
</technologies>
</device>
<device name="1206W" package="R1206W">
<connects>
<connect gate="G$1" pin="1" pad="1"/>
<connect gate="G$1" pin="2" pad="2"/>
</connects>
<technologies>
<technology name=""/>
</technologies>
</device>
<device name="1206FAB" package="R1206FAB">
<connects>
<connect gate="G$1" pin="1" pad="1"/>
<connect gate="G$1" pin="2" pad="2"/>
</connects>
<technologies>
<technology name=""/>
</technologies>
</device>
</devices>
</deviceset>
</devicesets>
</library>
</libraries>
<attributes>
</attributes>
<variantdefs>
</variantdefs>
<classes>
<class number="0" name="default" width="0" drill="0">
</class>
</classes>
<parts>
<part name="C1" library="fab" deviceset="CAP_UNPOLARIZED" device="" value="1uF"/>
<part name="U$1" library="fab" deviceset="CONN_06_FTDI-SMD-HEADER" device=""/>
<part name="U$2" library="fab" deviceset="UC_ATTINY45" device="SI"/>
<part name="S1" library="fab" deviceset="SW_SWITCH_TACTILE_6MM" device="6MM_SWITCH"/>
<part name="JP1" library="fab" deviceset="CONN_03X2-PINHEAD-SMD" device=""/>
<part name="U$3" library="fab" deviceset="LED" device=""/>
<part name="R1" library="fab" deviceset="R" device="1206" value="10k Ohms"/>
<part name="R2" library="fab" deviceset="R" device="1206" value="1k Ohms"/>
<part name="R3" library="fab" deviceset="R" device="1206" value="80 Ohms"/>
</parts>
<sheets>
<sheet>
<plain>
</plain>
<instances>
<instance part="C1" gate="&gt;NAME" x="154.94" y="50.8" smashed="yes" rot="R270">
<attribute name="NAME" x="157.48" y="54.61" size="1.778" layer="95" rot="R270"/>
<attribute name="VALUE" x="151.13" y="54.61" size="1.778" layer="96" rot="R270"/>
</instance>
<instance part="U$1" gate="G$1" x="167.64" y="25.4" smashed="yes"/>
<instance part="U$2" gate="G$1" x="86.36" y="30.48" smashed="yes">
<attribute name="NAME" x="91.44" y="22.86" size="1.778" layer="95"/>
</instance>
<instance part="S1" gate="2" x="60.96" y="63.5" smashed="yes" rot="R270">
<attribute name="NAME" x="58.42" y="69.85" size="1.778" layer="95"/>
<attribute name="VALUE" x="64.135" y="67.31" size="1.778" layer="96"/>
</instance>
<instance part="JP1" gate="A" x="-10.16" y="30.48" smashed="yes">
<attribute name="NAME" x="-16.51" y="36.195" size="1.778" layer="95"/>
<attribute name="VALUE" x="-16.51" y="22.86" size="1.778" layer="96"/>
</instance>
<instance part="U$3" gate="G$1" x="5.08" y="60.96" smashed="yes" rot="R270">
<attribute name="NAME" x="3.048" y="57.404" size="1.778" layer="95"/>
<attribute name="VALUE" x="3.048" y="55.245" size="1.778" layer="96"/>
</instance>
<instance part="R1" gate="G$1" x="139.7" y="53.34" smashed="yes" rot="R90">
<attribute name="NAME" x="138.2014" y="49.53" size="1.778" layer="95" rot="R90"/>
<attribute name="VALUE" x="143.002" y="49.53" size="1.778" layer="96" rot="R90"/>
</instance>
<instance part="R2" gate="G$1" x="137.16" y="20.32" smashed="yes">
<attribute name="NAME" x="133.35" y="21.8186" size="1.778" layer="95"/>
<attribute name="VALUE" x="133.35" y="17.018" size="1.778" layer="96"/>
</instance>
<instance part="R3" gate="G$1" x="20.32" y="60.96" smashed="yes" rot="R180">
<attribute name="NAME" x="24.13" y="59.4614" size="1.778" layer="95" rot="R180"/>
<attribute name="VALUE" x="24.13" y="64.262" size="1.778" layer="96" rot="R180"/>
</instance>
</instances>
<busses>
</busses>
<nets>
<net name="GND" class="0">
<segment>
<pinref part="JP1" gate="A" pin="1"/>
<wire x1="-12.7" y1="33.02" x2="-22.86" y2="33.02" width="0.1524" layer="91"/>
<label x="-22.86" y="33.02" size="1.778" layer="95"/>
</segment>
<segment>
<pinref part="U$1" gate="G$1" pin="GND"/>
<wire x1="167.64" y1="38.1" x2="162.56" y2="38.1" width="0.1524" layer="91"/>
<label x="162.56" y="38.1" size="1.778" layer="95"/>
</segment>
<segment>
<pinref part="U$2" gate="G$1" pin="GND"/>
<wire x1="33.02" y1="27.94" x2="25.4" y2="27.94" width="0.1524" layer="91"/>
<label x="25.4" y="27.94" size="1.778" layer="95"/>
</segment>
<segment>
<pinref part="C1" gate="&gt;NAME" pin="1"/>
<wire x1="154.94" y1="55.88" x2="147.32" y2="55.88" width="0.1524" layer="91"/>
<label x="147.32" y="55.88" size="1.778" layer="95"/>
</segment>
<segment>
<pinref part="U$3" gate="G$1" pin="C"/>
<wire x1="2.54" y1="60.96" x2="-5.08" y2="60.96" width="0.1524" layer="91"/>
<label x="-5.08" y="60.96" size="1.778" layer="95"/>
</segment>
<segment>
<pinref part="S1" gate="2" pin="P1"/>
<wire x1="55.88" y1="60.96" x2="48.26" y2="60.96" width="0.1524" layer="91"/>
<label x="48.26" y="60.96" size="1.778" layer="95"/>
</segment>
</net>
<net name="RST" class="0">
<segment>
<pinref part="JP1" gate="A" pin="2"/>
<wire x1="-5.08" y1="33.02" x2="5.08" y2="33.02" width="0.1524" layer="91"/>
<label x="0" y="33.02" size="1.778" layer="95"/>
</segment>
<segment>
<pinref part="U$2" gate="G$1" pin="PB5/PCINT5/-RESET/ADC0/DW"/>
<wire x1="33.02" y1="35.56" x2="25.4" y2="35.56" width="0.1524" layer="91"/>
<label x="25.4" y="35.56" size="1.778" layer="95"/>
</segment>
<segment>
<pinref part="R1" gate="G$1" pin="2"/>
<wire x1="139.7" y1="58.42" x2="132.08" y2="58.42" width="0.1524" layer="91"/>
<label x="132.08" y="58.42" size="1.778" layer="95"/>
</segment>
</net>
<net name="MOSI" class="0">
<segment>
<pinref part="JP1" gate="A" pin="3"/>
<wire x1="-12.7" y1="30.48" x2="-27.94" y2="30.48" width="0.1524" layer="91"/>
<label x="-22.86" y="30.48" size="1.778" layer="95"/>
<wire x1="-27.94" y1="30.48" x2="-27.94" y2="15.24" width="0.1524" layer="91"/>
<pinref part="U$2" gate="G$1" pin="MOSI/DI/SDA/AIN0/OC0A/-OC1A/AREF/PCINT0/PB0"/>
<wire x1="-27.94" y1="15.24" x2="121.92" y2="15.24" width="0.1524" layer="91"/>
<wire x1="121.92" y1="15.24" x2="121.92" y2="27.94" width="0.1524" layer="91"/>
</segment>
</net>
<net name="VCC" class="0">
<segment>
<pinref part="U$1" gate="G$1" pin="VCC"/>
<wire x1="167.64" y1="33.02" x2="162.56" y2="33.02" width="0.1524" layer="91"/>
<label x="162.56" y="33.02" size="1.778" layer="95"/>
</segment>
<segment>
<pinref part="U$2" gate="G$1" pin="VCC"/>
<wire x1="121.92" y1="35.56" x2="134.62" y2="35.56" width="0.1524" layer="91"/>
<label x="124.46" y="35.56" size="1.778" layer="95"/>
<wire x1="134.62" y1="35.56" x2="134.62" y2="43.18" width="0.1524" layer="91"/>
<wire x1="134.62" y1="43.18" x2="15.24" y2="43.18" width="0.1524" layer="91"/>
<wire x1="15.24" y1="43.18" x2="15.24" y2="20.32" width="0.1524" layer="91"/>
<wire x1="15.24" y1="20.32" x2="-22.86" y2="20.32" width="0.1524" layer="91"/>
<pinref part="JP1" gate="A" pin="5"/>
<wire x1="-12.7" y1="27.94" x2="-22.86" y2="27.94" width="0.1524" layer="91"/>
<label x="-22.86" y="27.94" size="1.778" layer="95"/>
<wire x1="-22.86" y1="20.32" x2="-22.86" y2="27.94" width="0.1524" layer="91"/>
</segment>
<segment>
<pinref part="R1" gate="G$1" pin="1"/>
<wire x1="139.7" y1="48.26" x2="139.7" y2="43.18" width="0.1524" layer="91"/>
<wire x1="139.7" y1="43.18" x2="154.94" y2="43.18" width="0.1524" layer="91"/>
<pinref part="C1" gate="&gt;NAME" pin="2"/>
<wire x1="154.94" y1="43.18" x2="154.94" y2="48.26" width="0.1524" layer="91"/>
<label x="142.24" y="43.18" size="1.778" layer="95"/>
</segment>
</net>
<net name="PB1" class="0">
<segment>
<pinref part="U$2" gate="G$1" pin="MISO/DO/AIN1/OC0B/OC1A/PCINT1/PB1"/>
<wire x1="121.92" y1="30.48" x2="129.54" y2="30.48" width="0.1524" layer="91"/>
<label x="124.46" y="30.48" size="1.778" layer="95"/>
</segment>
<segment>
<pinref part="U$1" gate="G$1" pin="RXD"/>
<wire x1="167.64" y1="27.94" x2="162.56" y2="27.94" width="0.1524" layer="91"/>
<label x="162.56" y="27.94" size="1.778" layer="95"/>
</segment>
<segment>
<pinref part="JP1" gate="A" pin="6"/>
<wire x1="-5.08" y1="27.94" x2="5.08" y2="27.94" width="0.1524" layer="91"/>
<label x="0" y="27.94" size="1.778" layer="95"/>
</segment>
</net>
<net name="PB2" class="0">
<segment>
<pinref part="U$2" gate="G$1" pin="SCK/USCK/SCL/ADC1/T0/INT0/PCINT2/PB2"/>
<wire x1="121.92" y1="33.02" x2="129.54" y2="33.02" width="0.1524" layer="91"/>
<label x="124.46" y="33.02" size="1.778" layer="95"/>
</segment>
<segment>
<pinref part="JP1" gate="A" pin="4"/>
<wire x1="-5.08" y1="30.48" x2="5.08" y2="30.48" width="0.1524" layer="91"/>
<label x="0" y="30.48" size="1.778" layer="95"/>
</segment>
<segment>
<pinref part="R2" gate="G$1" pin="1"/>
<wire x1="132.08" y1="20.32" x2="127" y2="20.32" width="0.1524" layer="91"/>
<label x="127" y="20.32" size="1.778" layer="95"/>
</segment>
</net>
<net name="TX" class="0">
<segment>
<pinref part="U$1" gate="G$1" pin="TXD"/>
<wire x1="167.64" y1="30.48" x2="162.56" y2="30.48" width="0.1524" layer="91"/>
<label x="162.56" y="30.48" size="1.778" layer="95"/>
</segment>
<segment>
<pinref part="R2" gate="G$1" pin="2"/>
<wire x1="142.24" y1="20.32" x2="147.32" y2="20.32" width="0.1524" layer="91"/>
<label x="142.24" y="20.32" size="1.778" layer="95"/>
</segment>
</net>
<net name="N$1" class="0">
<segment>
<pinref part="U$3" gate="G$1" pin="A"/>
<pinref part="R3" gate="G$1" pin="2"/>
<wire x1="10.16" y1="60.96" x2="15.24" y2="60.96" width="0.1524" layer="91"/>
</segment>
</net>
<net name="PB4" class="0">
<segment>
<pinref part="U$2" gate="G$1" pin="PB4/PCINT4/XTAL2/CLKO/OC1B/ADC2"/>
<wire x1="33.02" y1="30.48" x2="25.4" y2="30.48" width="0.1524" layer="91"/>
<label x="25.4" y="30.48" size="1.778" layer="95"/>
</segment>
<segment>
<pinref part="R3" gate="G$1" pin="1"/>
<wire x1="25.4" y1="60.96" x2="33.02" y2="60.96" width="0.1524" layer="91"/>
<label x="27.94" y="60.96" size="1.778" layer="95"/>
</segment>
</net>
<net name="PB3" class="0">
<segment>
<pinref part="U$2" gate="G$1" pin="PB3/PCINT3/XTAL1/CLKI/-OC1B/ADC3"/>
<wire x1="33.02" y1="33.02" x2="25.4" y2="33.02" width="0.1524" layer="91"/>
<label x="25.4" y="33.02" size="1.778" layer="95"/>
</segment>
<segment>
<pinref part="S1" gate="2" pin="S1"/>
<wire x1="66.04" y1="60.96" x2="73.66" y2="60.96" width="0.1524" layer="91"/>
<label x="68.58" y="60.96" size="1.778" layer="95"/>
</segment>
</net>
</nets>
</sheet>
</sheets>
</schematic>
</drawing>
</eagle>
